2021-06-17 21:00:20 INFO integration_evaluation.py - <module> : Start logging to /home/konstans/proj/marinvaders/tests/evaluation_logs/integration_evaluation.log and screen
2021-06-17 21:00:20 INFO integration_evaluation.py - <module> : Start downloading GISD data to {GISD_FILE}
2021-06-17 21:13:20 INFO integration_evaluation.py - <module> : Testing species class for 159559
2021-06-17 21:13:43 INFO integration_evaluation.py - <module> : WoRMS alien reports: 32
2021-06-17 21:13:43 INFO integration_evaluation.py - <module> : GISD alien reports: 22
2021-06-17 21:13:43 INFO integration_evaluation.py - <module> : NatCon alien reports: 0
2021-06-17 21:13:43 WARNING integration_evaluation.py - <module> : NatCon fails to report alien for 159559
2021-06-17 21:13:43 INFO integration_evaluation.py - <module> : LOOP 0: Agulhas Bank - 20192
2021-06-17 21:40:15 INFO integration_evaluation.py - <module> : Received species - total: 2940
2021-06-17 21:40:15 INFO integration_evaluation.py - <module> : Received species - alien: 57
2021-06-17 21:40:15 INFO integration_evaluation.py - <module> : Received species - affected: 31
2021-06-17 21:40:15 INFO integration_evaluation.py - <module> : LOOP 1: Aleutian Islands - 20053
2021-06-17 21:56:31 INFO integration_evaluation.py - <module> : Received species - total: 1156
2021-06-17 21:56:31 INFO integration_evaluation.py - <module> : Received species - alien: 83
2021-06-17 21:56:31 INFO integration_evaluation.py - <module> : Received species - affected: 12
2021-06-17 21:56:31 INFO integration_evaluation.py - <module> : LOOP 2: Amazonia - 20072
2021-06-17 22:12:04 INFO integration_evaluation.py - <module> : Received species - total: 942
2021-06-17 22:12:04 INFO integration_evaluation.py - <module> : Received species - alien: 13
2021-06-17 22:12:04 INFO integration_evaluation.py - <module> : Received species - affected: 6
2021-06-17 22:12:04 INFO integration_evaluation.py - <module> : LOOP 3: Amsterdam-St Paul - 20194
2021-06-17 22:27:28 INFO integration_evaluation.py - <module> : Received species - total: 296
2021-06-17 22:27:28 INFO integration_evaluation.py - <module> : Received species - alien: 7
2021-06-17 22:27:28 INFO integration_evaluation.py - <module> : Received species - affected: 14
2021-06-17 22:27:28 INFO integration_evaluation.py - <module> : LOOP 4: Amundsen/Bellingshausen Sea - 20228
2021-06-17 22:43:53 INFO integration_evaluation.py - <module> : Received species - total: 474
2021-06-17 22:43:53 INFO integration_evaluation.py - <module> : Received species - alien: 0
2021-06-17 22:43:53 INFO integration_evaluation.py - <module> : Received species - affected: 2
2021-06-17 22:43:53 INFO integration_evaluation.py - <module> : LOOP 5: Andaman and Nicobar Islands - 20109
2021-06-17 23:09:03 INFO integration_evaluation.py - <module> : Received species - total: 4632
2021-06-17 23:09:03 INFO integration_evaluation.py - <module> : Received species - alien: 11
2021-06-17 23:09:03 INFO integration_evaluation.py - <module> : Received species - affected: 204
2021-06-17 23:09:03 INFO integration_evaluation.py - <module> : LOOP 6: Andaman Sea Coral Coast - 20110
2021-06-17 23:27:42 INFO integration_evaluation.py - <module> : Received species - total: 1786
2021-06-17 23:27:42 INFO integration_evaluation.py - <module> : Received species - alien: 7
2021-06-17 23:27:42 INFO integration_evaluation.py - <module> : Received species - affected: 111
2021-06-17 23:27:42 INFO integration_evaluation.py - <module> : LOOP 7: Antarctic Peninsula - 20223
2021-06-17 23:48:50 INFO integration_evaluation.py - <module> : Received species - total: 2104
2021-06-17 23:48:50 INFO integration_evaluation.py - <module> : Received species - alien: 0
2021-06-17 23:48:50 INFO integration_evaluation.py - <module> : Received species - affected: 17
2021-06-17 23:48:50 INFO integration_evaluation.py - <module> : LOOP 8: Arabian (Persian) Gulf - 20090
2021-06-18 00:04:34 INFO integration_evaluation.py - <module> : Received species - total: 961
2021-06-18 00:04:34 INFO integration_evaluation.py - <module> : Received species - alien: 7
2021-06-18 00:04:34 INFO integration_evaluation.py - <module> : Received species - affected: 42
2021-06-18 00:04:34 INFO integration_evaluation.py - <module> : LOOP 9: Araucanian - 20178
2021-06-18 00:20:12 INFO integration_evaluation.py - <module> : Received species - total: 696
2021-06-18 00:20:12 INFO integration_evaluation.py - <module> : Received species - alien: 41
2021-06-18 00:20:12 INFO integration_evaluation.py - <module> : Received species - affected: 10
2021-06-18 00:20:12 INFO integration_evaluation.py - <module> : LOOP 10: Arnhem Coast to Gulf of Carpenteria - 20140
2021-06-18 00:47:21 INFO integration_evaluation.py - <module> : Received species - total: 4596
2021-06-18 00:47:21 INFO integration_evaluation.py - <module> : Received species - alien: 69
2021-06-18 00:47:21 INFO integration_evaluation.py - <module> : Received species - affected: 116
2021-06-18 00:47:21 INFO integration_evaluation.py - <module> : LOOP 11: Arafura Sea - 20139
2021-06-18 01:02:47 INFO integration_evaluation.py - <module> : Received species - total: 1181
2021-06-18 01:02:47 INFO integration_evaluation.py - <module> : Received species - alien: 69
2021-06-18 01:02:47 INFO integration_evaluation.py - <module> : Received species - affected: 14
2021-06-18 01:02:47 INFO integration_evaluation.py - <module> : LOOP 12: Auckland Island - 20232
2021-06-18 01:18:29 INFO integration_evaluation.py - <module> : Received species - total: 975
2021-06-18 01:18:29 INFO integration_evaluation.py - <module> : Received species - alien: 53
2021-06-18 01:18:29 INFO integration_evaluation.py - <module> : Received species - affected: 19
2021-06-18 01:18:29 INFO integration_evaluation.py - <module> : LOOP 13: Azores Canaries Madeira - 20029
2021-06-18 01:40:21 INFO integration_evaluation.py - <module> : Received species - total: 2493
2021-06-18 01:40:21 INFO integration_evaluation.py - <module> : Received species - alien: 20
2021-06-18 01:40:21 INFO integration_evaluation.py - <module> : Received species - affected: 14
2021-06-18 01:40:21 INFO integration_evaluation.py - <module> : LOOP 14: Baffin Bay - Davis Strait - 25007
2021-06-18 01:56:03 INFO integration_evaluation.py - <module> : Received species - total: 451
2021-06-18 01:56:03 INFO integration_evaluation.py - <module> : Received species - alien: 55
2021-06-18 01:56:03 INFO integration_evaluation.py - <module> : Received species - affected: 9
2021-06-18 01:56:03 INFO integration_evaluation.py - <module> : LOOP 15: Bahamian - 20063
2021-06-18 02:16:55 INFO integration_evaluation.py - <module> : Received species - total: 3174
2021-06-18 02:16:55 INFO integration_evaluation.py - <module> : Received species - alien: 85
2021-06-18 02:16:55 INFO integration_evaluation.py - <module> : Received species - affected: 96
2021-06-18 02:16:55 INFO integration_evaluation.py - <module> : LOOP 16: Baltic Sea - 20024
2021-06-18 02:51:03 INFO integration_evaluation.py - <module> : Received species - total: 1873
2021-06-18 02:51:03 INFO integration_evaluation.py - <module> : Received species - alien: 89
2021-06-18 02:51:03 INFO integration_evaluation.py - <module> : Received species - affected: 24
2021-06-18 02:51:03 INFO integration_evaluation.py - <module> : LOOP 17: Banda Sea - 20131
2021-06-18 03:11:49 INFO integration_evaluation.py - <module> : Received species - total: 3313
2021-06-18 03:11:49 INFO integration_evaluation.py - <module> : Received species - alien: 72
2021-06-18 03:11:49 INFO integration_evaluation.py - <module> : Received species - affected: 196
2021-06-18 03:11:49 INFO integration_evaluation.py - <module> : LOOP 18: Bassian - 20205
2021-06-18 03:48:04 INFO integration_evaluation.py - <module> : Received species - total: 6759
2021-06-18 03:48:04 INFO integration_evaluation.py - <module> : Received species - alien: 90
2021-06-18 03:48:04 INFO integration_evaluation.py - <module> : Received species - affected: 91
2021-06-18 03:48:04 INFO integration_evaluation.py - <module> : LOOP 19: Beaufort-Amundsen-Viscount Melville-Queen Maud - 20011
2021-06-18 04:03:38 INFO integration_evaluation.py - <module> : Received species - total: 404
2021-06-18 04:03:38 INFO integration_evaluation.py - <module> : Received species - alien: 54
2021-06-18 04:03:38 INFO integration_evaluation.py - <module> : Received species - affected: 7
2021-06-18 04:03:38 INFO integration_evaluation.py - <module> : LOOP 20: Beaufort Sea - continental coast and shelf - 20012
2021-06-18 04:19:35 INFO integration_evaluation.py - <module> : Received species - total: 910
2021-06-18 04:19:35 INFO integration_evaluation.py - <module> : Received species - alien: 83
2021-06-18 04:19:35 INFO integration_evaluation.py - <module> : Received species - affected: 10
2021-06-18 04:19:35 INFO integration_evaluation.py - <module> : LOOP 21: Bermuda - 20062
2021-06-18 04:35:34 INFO integration_evaluation.py - <module> : Received species - total: 1432
2021-06-18 04:35:34 INFO integration_evaluation.py - <module> : Received species - alien: 6
2021-06-18 04:35:34 INFO integration_evaluation.py - <module> : Received species - affected: 32
2021-06-18 04:35:34 INFO integration_evaluation.py - <module> : LOOP 22: Bismarck Sea - 20134
2021-06-18 05:00:57 INFO integration_evaluation.py - <module> : Received species - total: 4204
2021-06-18 05:00:57 INFO integration_evaluation.py - <module> : Received species - alien: 2
2021-06-18 05:00:57 INFO integration_evaluation.py - <module> : Received species - affected: 139
2021-06-18 05:00:57 INFO integration_evaluation.py - <module> : LOOP 23: Black Sea - 20044
2021-06-18 05:22:53 INFO integration_evaluation.py - <module> : Received species - total: 2377
2021-06-18 05:22:53 INFO integration_evaluation.py - <module> : Received species - alien: 69
2021-06-18 05:22:53 INFO integration_evaluation.py - <module> : Received species - affected: 7
2021-06-18 05:22:53 INFO integration_evaluation.py - <module> : LOOP 24: Bonaparte Coast - 20141
2021-06-18 05:49:08 INFO integration_evaluation.py - <module> : Received species - total: 4635
2021-06-18 05:49:08 INFO integration_evaluation.py - <module> : Received species - alien: 69
2021-06-18 05:49:08 INFO integration_evaluation.py - <module> : Received species - affected: 214
2021-06-18 05:49:08 INFO integration_evaluation.py - <module> : LOOP 25: Bounty and Antipodes Islands - 25230
2021-06-18 06:04:48 INFO integration_evaluation.py - <module> : Received species - total: 944
2021-06-18 06:04:48 INFO integration_evaluation.py - <module> : Received species - alien: 53
2021-06-18 06:04:48 INFO integration_evaluation.py - <module> : Received species - affected: 10
2021-06-18 06:04:48 INFO integration_evaluation.py - <module> : LOOP 26: Bouvet Island - 20217
2021-06-18 06:20:11 INFO integration_evaluation.py - <module> : Received species - total: 295
2021-06-18 06:20:11 INFO integration_evaluation.py - <module> : Received species - alien: 0
2021-06-18 06:20:11 INFO integration_evaluation.py - <module> : Received species - affected: 5
2021-06-18 06:20:11 INFO integration_evaluation.py - <module> : LOOP 27: Campbell Island - 20231
2021-06-18 06:35:47 INFO integration_evaluation.py - <module> : Received species - total: 822
2021-06-18 06:35:47 INFO integration_evaluation.py - <module> : Received species - alien: 53
2021-06-18 06:35:47 INFO integration_evaluation.py - <module> : Received species - affected: 14
2021-06-18 06:35:47 INFO integration_evaluation.py - <module> : LOOP 28: Cape Howe - 20204
2021-06-18 07:06:06 INFO integration_evaluation.py - <module> : Received species - total: 6337
2021-06-18 07:06:06 INFO integration_evaluation.py - <module> : Received species - alien: 92
2021-06-18 07:06:06 INFO integration_evaluation.py - <module> : Received species - affected: 79
2021-06-18 07:06:06 INFO integration_evaluation.py - <module> : LOOP 29: Cape Verde - 20079
2021-06-18 07:21:42 INFO integration_evaluation.py - <module> : Received species - total: 1272
2021-06-18 07:21:42 INFO integration_evaluation.py - <module> : Received species - alien: 3
2021-06-18 07:21:42 INFO integration_evaluation.py - <module> : Received species - affected: 11
2021-06-18 07:21:42 INFO integration_evaluation.py - <module> : LOOP 30: Cargados Carajos/Tromelin Island - 20097
2021-06-18 07:37:36 INFO integration_evaluation.py - <module> : Received species - total: 864
2021-06-18 07:37:36 INFO integration_evaluation.py - <module> : Received species - alien: 10
2021-06-18 07:37:36 INFO integration_evaluation.py - <module> : Received species - affected: 117
2021-06-18 07:37:36 INFO integration_evaluation.py - <module> : LOOP 31: Carolinian - 25042
2021-06-18 08:05:44 INFO integration_evaluation.py - <module> : Received species - total: 4641
2021-06-18 08:05:44 INFO integration_evaluation.py - <module> : Received species - alien: 103
2021-06-18 08:05:44 INFO integration_evaluation.py - <module> : Received species - affected: 64
2021-06-18 08:05:44 INFO integration_evaluation.py - <module> : LOOP 32: Celtic Seas - 20026
2021-06-18 08:55:37 INFO integration_evaluation.py - <module> : Received species - total: 6333
2021-06-18 08:55:37 INFO integration_evaluation.py - <module> : Received species - alien: 96
2021-06-18 08:55:37 INFO integration_evaluation.py - <module> : Received species - affected: 29
2021-06-18 08:55:37 INFO integration_evaluation.py - <module> : LOOP 33: Central Chile - 20177
2021-06-18 09:10:58 INFO integration_evaluation.py - <module> : Received species - total: 505
2021-06-18 09:10:58 INFO integration_evaluation.py - <module> : Received species - alien: 41
2021-06-18 09:10:58 INFO integration_evaluation.py - <module> : Received species - affected: 4
2021-06-18 09:10:58 INFO integration_evaluation.py - <module> : LOOP 34: Central Kuroshio Current - 20051
2021-06-18 09:37:58 INFO integration_evaluation.py - <module> : Received species - total: 5519
2021-06-18 09:37:58 INFO integration_evaluation.py - <module> : Received species - alien: 31
2021-06-18 09:37:58 INFO integration_evaluation.py - <module> : Received species - affected: 94
2021-06-18 09:37:58 INFO integration_evaluation.py - <module> : LOOP 35: Central New Zealand - 25199
2021-06-18 10:05:29 INFO integration_evaluation.py - <module> : Received species - total: 4602
2021-06-18 10:05:29 INFO integration_evaluation.py - <module> : Received species - alien: 69
2021-06-18 10:05:29 INFO integration_evaluation.py - <module> : Received species - affected: 60
2021-06-18 10:05:29 INFO integration_evaluation.py - <module> : LOOP 36: Central Peru - 20175
2021-06-18 10:23:39 INFO integration_evaluation.py - <module> : Received species - total: 1325
2021-06-18 10:23:39 INFO integration_evaluation.py - <module> : Received species - alien: 40
2021-06-18 10:23:39 INFO integration_evaluation.py - <module> : Received species - affected: 3
2021-06-18 10:23:39 INFO integration_evaluation.py - <module> : LOOP 37: Central Somali Coast - 20093
2021-06-18 10:39:08 INFO integration_evaluation.py - <module> : Received species - total: 651
2021-06-18 10:39:08 INFO integration_evaluation.py - <module> : Received species - alien: 10
2021-06-18 10:39:08 INFO integration_evaluation.py - <module> : Received species - affected: 1
2021-06-18 10:39:08 INFO integration_evaluation.py - <module> : LOOP 38: Chagos - 20106
2021-06-18 10:55:17 INFO integration_evaluation.py - <module> : Received species - total: 1131
2021-06-18 10:55:17 INFO integration_evaluation.py - <module> : Received species - alien: 10
2021-06-18 10:55:17 INFO integration_evaluation.py - <module> : Received species - affected: 174
2021-06-18 10:55:17 INFO integration_evaluation.py - <module> : LOOP 39: Channels and Fjords of Southern Chile - 20187
2021-06-18 11:11:13 INFO integration_evaluation.py - <module> : Received species - total: 1643
2021-06-18 11:11:13 INFO integration_evaluation.py - <module> : Received species - alien: 49
2021-06-18 11:11:13 INFO integration_evaluation.py - <module> : Received species - affected: 21
2021-06-18 11:11:13 INFO integration_evaluation.py - <module> : LOOP 40: Chatham Island - 25198
2021-06-18 11:27:42 INFO integration_evaluation.py - <module> : Received species - total: 1616
2021-06-18 11:27:42 INFO integration_evaluation.py - <module> : Received species - alien: 53
2021-06-18 11:27:42 INFO integration_evaluation.py - <module> : Received species - affected: 25
2021-06-18 11:27:42 INFO integration_evaluation.py - <module> : LOOP 41: Chiapas-Nicaragua - 20167
2021-06-18 11:43:29 INFO integration_evaluation.py - <module> : Received species - total: 1327
2021-06-18 11:43:29 INFO integration_evaluation.py - <module> : Received species - alien: 15
2021-06-18 11:43:29 INFO integration_evaluation.py - <module> : Received species - affected: 11
2021-06-18 11:43:29 INFO integration_evaluation.py - <module> : LOOP 42: Chiloense - 20188
2021-06-18 11:58:49 INFO integration_evaluation.py - <module> : Received species - total: 546
2021-06-18 11:58:49 INFO integration_evaluation.py - <module> : Received species - alien: 42
2021-06-18 11:58:49 INFO integration_evaluation.py - <module> : Received species - affected: 7
2021-06-18 11:58:49 INFO integration_evaluation.py - <module> : LOOP 43: Chukchi Sea - 20013
2021-06-18 12:14:50 INFO integration_evaluation.py - <module> : Received species - total: 807
2021-06-18 12:14:50 INFO integration_evaluation.py - <module> : Received species - alien: 81
2021-06-18 12:14:50 INFO integration_evaluation.py - <module> : Received species - affected: 17
2021-06-18 12:14:50 INFO integration_evaluation.py - <module> : LOOP 44: Clipperton - 20165
2021-06-18 12:30:13 INFO integration_evaluation.py - <module> : Received species - total: 210
2021-06-18 12:30:13 INFO integration_evaluation.py - <module> : Received species - alien: 0
2021-06-18 12:30:13 INFO integration_evaluation.py - <module> : Received species - affected: 0
2021-06-18 12:30:13 INFO integration_evaluation.py - <module> : LOOP 45: Cocos-Keeling/Christmas Island - 20120
2021-06-18 12:46:30 INFO integration_evaluation.py - <module> : Received species - total: 1300
2021-06-18 12:46:30 INFO integration_evaluation.py - <module> : Received species - alien: 10
2021-06-18 12:46:30 INFO integration_evaluation.py - <module> : Received species - affected: 120
2021-06-18 12:46:30 INFO integration_evaluation.py - <module> : LOOP 46: Cocos Islands - 20169
